module gitlab.com/pay90/proto

go 1.18

require (
	github.com/golang/protobuf v1.5.2
	github.com/grpc-ecosystem/grpc-gateway/v2 v2.10.3
	google.golang.org/grpc v1.46.2
	google.golang.org/protobuf v1.28.1
)

require (
	golang.org/x/net v0.0.0-20220127200216-cd36cc0744dd // indirect
	golang.org/x/sys v0.0.0-20211216021012-1d35b9e2eb4e // indirect
	golang.org/x/text v0.3.7 // indirect
	google.golang.org/genproto v0.0.0-20220519153652-3a47de7e79bd // indirect
	google.golang.org/grpc/cmd/protoc-gen-go-grpc v1.2.0 // indirect
)
